Garcia Gonzalez, Lucas
12344321J
micuenta.bancobancario.com 11/11/2013 23:48
***
Gomez Garcia, Juan
11112222F
www.rtve.es 11/11/2013 23:49
***
Gonzalez Cabaleiro, Iris
44443333L
www.google.es 11/11/2013 23:59
***
Landesa Gomez, Cesar
39460878P
www.elpais.es 12/11/2013 00:21
www.xataka.com 11/11/2013 23:48
www.google.es 11/11/2013 23:47
***
Varela Moscoso, Daniel
12341234P
www.google.es 12/11/2013 00:20
micuenta.bancobancario.com 12/11/2013 00:19
***
